<?xml version="1.0" encoding="UTF-8" standalone="no"?>
<!DOCTYPE svg PUBLIC "-//W3C//DTD SVG 1.1//EN" "http://www.w3.org/Graphics/SVG/1.1/DTD/svg11.dtd">
<svg width="100%" height="100%" viewBox="0 0 416 45" version="1.1" xmlns="http://www.w3.org/2000/svg" xmlns:xlink="http://www.w3.org/1999/xlink" xml:space="preserve" xmlns:serif="http://www.serif.com/" style="fill-rule:evenodd;clip-rule:evenodd;stroke-linejoin:round;stroke-miterlimit:2;">
    <g transform="matrix(1,0,0,1,66.4987,-127.54)">
        <path d="M219.23,170.53L233.1,170.53L233.1,139.53L240.85,139.53L240.85,128.53L211.47,128.53L211.47,139.53L219.23,139.53L219.23,170.53ZM267.46,170.59C269.489,169.987 271.37,168.965 272.98,167.59C274.546,166.192 275.757,164.44 276.51,162.48C277.375,160.163 277.792,157.703 277.74,155.23L277.74,128.47L264.25,128.47L264.25,154.64C264.327,155.837 264.004,157.027 263.33,158.02C261.591,159.558 258.949,159.558 257.21,158.02C256.544,157.024 256.224,155.836 256.3,154.64L256.3,128.47L242.87,128.47L242.87,155.21C242.818,157.683 243.235,160.143 244.1,162.46C244.85,164.414 246.049,166.165 247.6,167.57C249.195,168.951 251.067,169.974 253.09,170.57C257.785,171.917 262.765,171.917 267.46,170.57M280.64,170.07C281.74,170.379 282.855,170.633 283.98,170.83C284.98,171.03 286.24,171.21 287.61,171.36C289.085,171.514 290.567,171.588 292.05,171.58C294.384,171.645 296.711,171.307 298.93,170.58C300.696,169.984 302.315,169.02 303.68,167.75C304.912,166.572 305.853,165.124 306.43,163.52C307.027,161.852 307.325,160.092 307.31,158.32C307.335,156.684 307.047,155.058 306.46,153.53C305.929,152.165 305.23,150.872 304.38,149.68C303.587,148.586 302.678,147.58 301.67,146.68C300.67,145.8 299.78,145.02 298.96,144.35C298.14,143.68 297.44,143.09 296.87,142.58C296.3,142.07 296.03,141.66 296.03,141.32C296.012,140.986 296.148,140.661 296.4,140.44C296.661,140.231 296.965,140.081 297.29,140C297.641,139.914 297.999,139.86 298.36,139.84L299.3,139.84C299.77,139.84 300.21,139.84 300.63,139.9L301.76,140.03L302.9,140.16L302.9,128.36L300.19,127.99L297.48,127.7C296.48,127.6 295.48,127.54 294.48,127.54C292.631,127.531 290.791,127.797 289.02,128.33C287.41,128.815 285.905,129.595 284.58,130.63C283.298,131.641 282.27,132.94 281.58,134.42C280.832,136.06 280.463,137.848 280.5,139.65C280.472,141.261 280.774,142.861 281.39,144.35C281.953,145.681 282.704,146.923 283.62,148.04C284.495,149.095 285.465,150.065 286.52,150.94C287.52,151.78 288.52,152.55 289.42,153.24C290.203,153.825 290.951,154.456 291.66,155.13C292.171,155.543 292.492,156.146 292.55,156.8C292.55,158.23 291.55,158.95 289.65,158.95C288.564,158.947 287.479,158.884 286.4,158.76C285.434,158.649 284.475,158.479 283.53,158.25C282.548,158.092 281.578,157.861 280.63,157.56L280.64,170.07ZM310.15,170.51L323.77,170.51L323.77,157.51L332.77,170.51L348.98,170.51L333.35,147.7L348.17,128.47L331.71,128.47L323.77,138.18L323.77,128.47L310.15,128.47L310.15,170.51Z" style="fill:rgb(210,35,42);fill-rule:nonzero;"/>
    </g>
    <g transform="matrix(1,0,0,1,-105.101,-77.6507)">
        <path d="M244.89,87.3C243.948,85.317 242.529,83.599 240.76,82.3C238.916,80.994 236.838,80.053 234.64,79.53C232.177,78.922 229.647,78.623 227.11,78.64L213.68,78.64L213.68,120.7L227.11,120.7L227.11,110.7C229.647,110.717 232.177,110.418 234.64,109.81C236.837,109.282 238.914,108.342 240.76,107.04C242.523,105.755 243.942,104.055 244.89,102.09C245.958,99.77 246.475,97.233 246.4,94.68C246.475,92.127 245.958,89.59 244.89,87.27M227.11,90L227.67,90C229.058,89.868 230.44,90.314 231.49,91.23C233.046,93.251 233.046,96.089 231.49,98.11C230.44,99.026 229.058,99.472 227.67,99.34L227.11,99.34L227.11,90ZM249.55,120.71L263.8,120.71L263.8,78.69L249.55,78.69L249.55,120.71ZM264.75,120.71L293.94,120.71L298.17,109.71L284.36,109.71L298.99,78.71L272.07,78.71L267.78,89.71L279.38,89.71L264.75,120.71ZM296.15,120.71L325.35,120.71L329.57,109.71L315.76,109.71L330.39,78.71L303.47,78.71L299.18,89.71L310.78,89.71L296.15,120.71ZM328.15,120.71L341.39,120.71L342.78,116.93L355.52,116.93L356.9,120.71L370.14,120.71L354.22,78.69L344.13,78.69L328.15,120.71ZM346.31,107.71L349.15,100.33L352,107.7L346.31,107.71Z" style="fill:rgb(35,31,32);fill-rule:nonzero;"/>
    </g>
    <g transform="matrix(1,0,0,1,-211.47,-27.931)">
        <path d="M219.23,71L233.1,71L233.1,40L240.85,40L240.85,29L211.47,29L211.47,40L219.23,40L219.23,71ZM243.06,71L256.49,71L256.49,55.4L264,55.4L264,71L277.5,71L277.5,28.91L264,28.91L264,43.23L256.5,43.23L256.5,28.91L243.06,28.91L243.06,71ZM281.9,71L307.12,71L307.12,60L295.33,60L295.33,55.08L306.49,55.08L306.49,44.61L295.33,44.61L295.33,40L306.68,40L306.68,29L281.9,29L281.9,71Z" style="fill:rgb(210,35,42);fill-rule:nonzero;"/>
    </g>
</svg>
